ASI Workshop: Data Types, Functions, Loops, and PCA Using Single-Cell RNA-seq Data
…
GSE168944_metadata %>% select(1:3) %>% glimpse()

## Rows: 64,449
## Columns: 3
## $ barcode <chr> "DJ01_AAACCTGAGACACGAC", "DJ01_AAACCTGAGCACAGGT", "DJ01_AAACCT…
## $ nGene   <dbl> 3673, 3706, 2886, 4947, 3183, 1737, 4138, 2787, 3257, 4881, 24…
## $ nUMI    <dbl> 15713, 16798, 9889, 31301, 15141, 4553, 21871, 10036, 14025, 2…

Summarise Categories

GSE168944_metadata %>%
  count(Cluster)

## # A tibble: 33 × 2
##    Cluster               n
##    <chr>             <int>
##  1 C01_CD8_Tn        14435
##  2 C02_CD8_Tscm        510
##  3 C03_CD8_Gzmm       1273
##  4 C04_CD8_KLR        1071
##  5 C05_CD8_Teff        422
##  6 C06_CD8_Tem_ISG     492
##  7 C07_CD8_Tex_ISG    1588
##  8 C08_CD8_Tex_Cd244  4788
##  9 C09_CD8_Tex_Ccr7   3700
## 10 C10_CD8_Tex_Gzmc   1401
## # ℹ 23 more rows
…
## [1] TRUE

Depending on how you need the data, a left or right join will also
remove unneeded data.

expr_mat_meta <- as_tibble(expr_cells, rownames = "barcode") %>%
  left_join(GSE168944_metadata, by = "barcode")

expr_mat_meta %>% select((last_col() - 5):last_col())

## # A tibble: 10,000 × 6
##    Mouse Tissue orig.ident Cluster            NT_clonotype          AA_clonotype
##    <chr> <chr>       <dbl> <chr>              <chr>                 <chr>       
##  1 m01   Tumor         7.1 C07_CD8_Tex_ISG    TRA:TRAV16_TRAJ43_TG… TRA:TRAV16_…
##  2 m01   Tumor         3   C11_CD8_Tex_Ccl3   TRA:TRAV7d-2_TRAJ39_… TRA:TRAV7d-…
##  3 m01   Tumor        10.1 C17_CD4_Th1        TRA:TRAV16_TRAJ39_TG… TRA:TRAV16_…
##  4 m01   Tumor         7.1 C07_CD8_Tex_ISG    TRA:TRAV16d-dv11_TRA… TRA:TRAV16d…
##  5 m01   Tumor        14   C13_CD8_Mki67      TRA:TRAV7d-2_TRAJ39_… TRA:TRAV7d-…
##  6 m01   Tumor         4.2 C33_Mixed_Tex_Treg TRA:TRAV3-3_TRAJ23_T… TRA:TRAV3-3…
##  7 m01   Tumor         3   C09_CD8_Tex_Ccr7   TRA:TRAV6-7-dv9_TRAJ… TRA:TRAV6-7…
##  8 m01   Tumor         9.1 C12_CD8_Mki67_E2F  TRA:TRAV14d-2_TRAJ24… TRA:TRAV14d…
##  9 m01   Tumor         7.1 C07_CD8_Tex_ISG    TRA:TRAV14d-2_TRAJ24… TRA:TRAV14d…
## 10 m01   Tumor         3   C08_CD8_Tex_Cd244  TRA:TRAV7-5_TRAJ30_T… TRA:TRAV7-5…
## # ℹ 9,990 more rows
…
Start

Loadings identify which genes drive each principal component.

Extract Loadings

loadings <- as_tibble(
  sc_pca$rotation,
  rownames = "gene"
)

loadings

## # A tibble: 2,000 × 2,001
##    gene         PC1      PC2     PC3      PC4      PC5      PC6      PC7     PC8
##    <chr>      <dbl>    <dbl>   <dbl>    <dbl>    <dbl>    <dbl>    <dbl>   <dbl>
##  1 Gm42418 -0.00953 -0.0355  -0.0174  0.0126  -0.00278  2.97e-2  2.93e-4 -0.0109
##  2 Tmsb4x  -0.0393   0.00465 -0.0307  0.00239 -0.0117  -5.49e-3 -4.05e-2 -0.0225
##  3 Actb    -0.0372  -0.0117  -0.0140  0.0266   0.0229   3.62e-3 -1.33e-2 -0.0844
##  4 Eef1a1  -0.0327  -0.0479  -0.0526 -0.0332  -0.00412  1.17e-2  1.11e-2  0.0368
##  5 Tmsb10  -0.0259  -0.0530  -0.0167  0.0122  -0.0118   4.07e-4  9.30e-3 -0.0248
##  6 Actg1   -0.0369   0.0182  -0.0104  0.0141   0.0159  -1.54e-2 -1.40e-2 -0.0522
##  7 Rps15a  -0.0316  -0.0432  -0.0623 -0.0346  -0.0264   9.21e-3  1.31e-2  0.0539
##  8 Rps24   -0.0156  -0.0800  -0.0387 -0.0275  -0.0178   1.09e-2  2.94e-2  0.0520
##  9 Rpl41   -0.0195  -0.0593  -0.0162 -0.0485   0.0733   7.61e-2  4.45e-2 -0.0127
## 10 Rpsa    -0.0290  -0.0612  -0.0324 -0.0215  -0.00493 -2.06e-3  2.57e-2  0.0442
## # ℹ 1,990 more rows
## # ℹ 1,992 more variables: PC9 <dbl>, PC10 <dbl>, PC11 <dbl>, PC12 <dbl>,
## #   PC13 <dbl>, PC14 <dbl>, PC15 <dbl>, PC16 <dbl>, PC17 <dbl>, PC18 <dbl>,
## #   PC19 <dbl>, PC20 <dbl>, PC21 <dbl>, PC22 <dbl>, PC23 <dbl>, PC24 <dbl>,
## #   PC25 <dbl>, PC26 <dbl>, PC27 <dbl>, PC28 <dbl>, PC29 <dbl>, PC30 <dbl>,
## #   PC31 <dbl>, PC32 <dbl>, PC33 <dbl>, PC34 <dbl>, PC35 <dbl>, PC36 <dbl>,
## #   PC37 <dbl>, PC38 <dbl>, PC39 <dbl>, PC40 <dbl>, PC41 <dbl>, PC42 <dbl>, …
…
